86-1.008
86-2.008
84-3.008
79-4.008
79-5.012
80-6.008
81-7.008
84-8.004
81-9.003
80-10.008
83-11.008
86-12.008
76-13.007
77-14.008
82-15.008
85-16.008
80-17.008
76-18.006
76-19.008
77-20.008
78-21.009
80-22.005
80-23.005
80-24.005
78-25.008
82-26.008
0-27.008
86-28.006
78-29.008
76-30.008
78-31.008
78-32.007
76-33.006
76-34.009
76-35.005
80-36.008
83-37.008
81-38.007
81-39.008
80-40.008
78-41.008
83-42.008
80-43.007
79-44.008
76-45.008
77-46.008
81-47.010
81-48.014
76-49.008
76-50.008
77-51.008
76-52.009
77-53.008
85-54.008
82-55.012
77-56.008
77-57.008
78-58.008
78-59.010
