66-1.007
67-2.004
68-3.003
68-4.007
67-5.004
66-6.004
66-7.007
68-8.010
67-9.005
66-10.007
67-11.011
67-12.007
67-13.004
70-14.008
70-15.006
78-16.013
72-17.002
72-18.005
72-19.006
68-20.004
67-21.002
73-22.004
73-23.006
73-24.004
76-25.002
76-26.004
74-27.003
74-28.010
69-29.007
67-30.006
73-31.003
73-32.005
75-33.004
78-34.007
77-35.006
71-36.005
75-37.006
77-38.004
77-39.010
72-40.007
72-41.003
74-42.002
69-43.004
68-44.006
68-45.004
70-46.003
68-47.005
68-48.015
67-49.004
71-50.004
71-51.004
69-52.006
68-53.005
68-54.006
69-55.004
69-56.004
70-57.005
70-58.007
70-59.005
