63-1.004
64-2.002
64-3.005
63-4.007
65-5.007
65-6.002
64-7.007
65-8.003
64-9.008
64-10.015
64-11.004
65-12.006
64-13.006
63-14.003
63-15.008
66-16.004
65-17.007
64-18.007
62-19.006
63-20.003
63-21.004
64-22.009
64-23.006
64-24.002
65-25.001
64-26.006
63-27.008
63-28.007
63-29.006
63-30.002
66-31.006
69-32.003
68-33.006
67-34.006
66-35.006
67-36.003
66-37.003
70-38.005
72-39.006
65-40.005
65-41.003
65-42.006
68-43.005
68-44.006
67-45.008
67-46.008
67-47.010
67-48.007
67-49.011
66-50.006
67-51.006
63-52.006
63-53.003
64-54.006
64-55.010
65-56.005
64-57.006
64-58.003
62-59.006
