68-1.007
67-2.004
70-3.006
73-4.006
75-5.006
78-6.005
87-7.008
75-8.010
76-9.010
82-10.005
74-11.007
74-12.004
64-13.007
62-14.004
70-15.004
69-16.004
69-17.004
69-18.004
69-19.006
67-20.006
69-21.007
73-22.007
72-23.007
70-24.004
71-25.007
68-26.004
68-27.009
66-28.006
66-29.007
66-30.009
67-31.007
73-32.007
66-33.004
65-34.007
66-35.007
68-36.009
68-37.007
66-38.005
65-39.002
70-40.004
72-41.006
73-42.009
66-43.002
68-44.007
69-45.008
69-46.007
70-47.007
73-48.007
68-49.007
67-50.007
71-51.007
69-52.007
68-53.008
69-54.007
72-55.007
70-56.008
70-57.013
69-58.004
68-59.007
