64-1.063
63-2.008
64-3.008
60-4.008
61-5.008
61-6.008
61-7.006
61-8.005
59-9.008
60-10.006
62-11.013
61-12.008
60-13.009
60-14.008
60-15.008
59-16.006
59-17.008
59-18.008
59-19.013
60-20.008
59-21.008
59-22.007
59-23.009
59-24.008
59-25.004
59-26.007
59-27.008
59-28.013
59-29.008
59-30.008
59-31.004
59-32.006
59-33.008
58-34.008
58-35.009
59-36.005
59-37.009
58-38.009
59-39.008
60-40.006
65-41.008
64-42.008
63-43.008
62-44.008
62-45.008
63-46.008
63-47.008
61-48.008
60-49.008
61-50.005
61-51.008
61-52.008
61-53.008
61-54.007
61-55.003
60-56.008
60-57.004
62-58.006
61-59.008
